<?xml version="1.0" encoding="UTF-8"?>
<!DOCTYPE svg PUBLIC "-//W3C//DTD SVG 1.1//EN" "http://www.w3.org/Graphics/SVG/1.1/DTD/svg11.dtd">
<!-- Creator: CorelDRAW 2018 (64-Bit) -->
<svg xmlns="http://www.w3.org/2000/svg" xml:space="preserve" width="4.98756in" height="1.92032in" version="1.1" style="shape-rendering:geometricPrecision; text-rendering:geometricPrecision; image-rendering:optimizeQuality; fill-rule:evenodd; clip-rule:evenodd"
viewBox="0 0 5323.32 2049.6"
 xmlns:xlink="http://www.w3.org/1999/xlink">
 <defs>
  <style type="text/css">
   <![CDATA[
    .str0 {stroke:white;stroke-width:44.47;stroke-miterlimit:2.61313}
    .fil0 {fill:none}
    .fil1 {fill:#FEFEFE;fill-rule:nonzero}
   ]]>
  </style>
 </defs>
 <g id="Layer_x0020_1">
  <metadata id="CorelCorpID_0Corel-Layer"/>
  <path class="fil0 str0" d="M643.99 44.71c-374.96,113.04 -467.49,249.95 -548.04,641.82 -76.29,371.15 -153.98,853.98 101.77,1026.64 343.49,231.87 792.44,-261.33 1939.21,306.45 152.24,75.38 178.86,-406.08 -307.14,-672.21 -68.64,-37.59 67.64,-146.36 21.9,-290.45 -175.32,-552.17 -1038.28,126.22 -1100.89,-426.74 -41.95,-370.55 268.15,-698.56 -106.81,-585.52z"/>
  <path class="fil1" d="M2722.03 1460.25l220.38 0c30.91,0 56.26,8.37 76.02,25.11 19.99,16.97 29.75,40.45 29.75,70.9 0,29.06 -10,52.31 -30.22,69.27 -20.22,17.2 -45.33,25.8 -75.55,25.8l-299.88 0c-41.84,0 -74.62,-11.85 -98.33,-35.34 -23.71,-23.48 -35.57,-56.26 -35.57,-98.56l0 -691.82c0,-33.47 9.53,-61.6 28.59,-84.39 19.06,-22.78 45.33,-34.17 78.57,-34.17 33.24,0 59.28,11.39 78.11,34.17 18.83,22.78 28.13,50.91 28.13,84.39l0 634.63z"/>
  <path id="1" class="fil1" d="M3122.57 748.91c0,-32.54 11.62,-60.67 34.87,-84.39 23.25,-23.71 51.14,-35.57 83.69,-35.57 21.39,0 41.15,5.35 59.28,16.27 18.14,10.93 32.54,25.57 43.24,43.94 10.69,18.6 16.04,38.36 16.04,59.74 0,32.31 -11.62,60.21 -34.87,84.15 -23.25,23.94 -51.14,35.8 -83.69,35.8 -32.54,0 -60.44,-11.85 -83.69,-35.8 -23.25,-23.95 -34.87,-51.84 -34.87,-84.15zm13.95 797.82l0 -497.94c0,-32.08 9.07,-59.04 27.2,-80.66 18.13,-21.62 43.01,-32.31 74.62,-32.31 31.85,0 56.95,10.69 75.55,32.31 18.37,21.62 27.66,48.58 27.66,80.66l0 497.94c0,32.54 -9.06,59.98 -27.43,81.6 -18.13,21.85 -43.47,32.78 -75.78,32.78 -31.15,0 -55.79,-11.16 -74.15,-33.25 -18.37,-22.08 -27.67,-49.28 -27.67,-81.13z"/>
  <path id="2" class="fil1" d="M3726.28 1315.19l0 231.54c0,32.31 -9.06,59.28 -27.43,81.36 -18.36,22.08 -43.47,33.01 -75.78,33.01 -31.15,0 -55.79,-11.16 -74.16,-33.25 -18.36,-22.08 -27.66,-49.28 -27.66,-81.13l0 -805.03c0,-20.22 3.95,-39.05 11.85,-56.49 7.9,-17.67 19.76,-31.39 35.34,-41.38 15.58,-9.99 33.71,-14.88 54.63,-14.88 31.85,0 56.95,10.69 75.55,32.31 18.36,21.62 27.66,48.35 27.66,80.43l0 435.18 203.64 -208.99c21.15,-22.32 52.31,-33.47 93.22,-33.47 17.43,0 33.94,7.21 49.75,21.85 16.04,14.65 26.5,31.15 31.39,49.28 1.86,10.93 2.79,18.83 2.79,23.48 0,30.92 -12.55,57.42 -37.89,79.73l-145.06 137.85 180.16 223.4c27.89,36.96 41.84,64.86 41.84,83.45 0,29.06 -8.37,54.16 -24.88,75.55 -16.51,21.39 -38.13,32.08 -64.62,32.08 -42.78,0 -75.55,-15.81 -98.8,-47.66l-231.54 -298.26z"/>
  <path id="3" class="fil1" d="M4271.88 748.91c0,-32.54 11.62,-60.67 34.87,-84.39 23.25,-23.71 51.14,-35.57 83.69,-35.57 21.39,0 41.15,5.35 59.28,16.27 18.14,10.93 32.54,25.57 43.24,43.94 10.69,18.6 16.04,38.36 16.04,59.74 0,32.31 -11.62,60.21 -34.87,84.15 -23.25,23.94 -51.14,35.8 -83.69,35.8 -32.54,0 -60.44,-11.85 -83.69,-35.8 -23.25,-23.95 -34.87,-51.84 -34.87,-84.15zm13.95 797.82l0 -497.94c0,-32.08 9.07,-59.04 27.2,-80.66 18.13,-21.62 43.01,-32.31 74.62,-32.31 31.85,0 56.95,10.69 75.55,32.31 18.37,21.62 27.66,48.58 27.66,80.66l0 497.94c0,32.54 -9.06,59.98 -27.43,81.6 -18.13,21.85 -43.47,32.78 -75.78,32.78 -31.15,0 -55.79,-11.16 -74.15,-33.25 -18.37,-22.08 -27.67,-49.28 -27.67,-81.13z"/>
  <path id="4" class="fil1" d="M5118.29 995.78l0 -254.09c0,-32.08 9.07,-58.81 27.43,-80.43 18.37,-21.62 43.47,-32.31 75.78,-32.31 31.62,0 56.49,10.69 74.62,32.08 18.13,21.62 27.2,48.35 27.2,80.67l0 802.24c0,33.01 -8.6,60.67 -26.04,83.23 -17.43,22.55 -42.08,33.94 -74.16,33.94 -26.73,0 -47.89,-6.74 -63.46,-19.99 -15.58,-13.48 -28.36,-33.71 -38.36,-60.91 -22.31,30.22 -47.89,51.84 -77.17,65.09 -29.29,13.25 -63.7,19.99 -102.98,19.99 -45.33,0 -88.1,-11.62 -128.32,-34.87 -40.22,-23.25 -74.16,-54.4 -101.82,-93.45 -51.14,-74.16 -76.71,-160.17 -76.71,-258.04 0,-48.82 11.62,-98.56 34.87,-148.78 23.25,-50.45 53.47,-91.82 90.89,-124.37 57.42,-50.45 123.44,-75.55 197.83,-75.55 53.47,0 106.93,21.85 160.4,65.56zm-278.96 292.91c0,45.79 12.79,86.71 38.59,122.28 25.57,35.57 60.21,53.47 103.68,53.47 29.06,0 53.93,-8.6 74.62,-26.04 20.92,-17.43 36.73,-39.75 47.42,-67.18 10.69,-27.66 16.04,-55.56 16.04,-83.92 0,-27.9 -5.35,-55.56 -16.04,-82.76 -10.69,-27.2 -26.5,-49.51 -47.42,-66.95 -20.69,-17.43 -45.56,-26.04 -74.62,-26.04 -29.75,0 -55.56,8.6 -77.18,25.57 -21.62,16.97 -37.89,39.05 -48.82,66.25 -10.93,27.2 -16.27,55.56 -16.27,85.31z"/>
 </g>
</svg>
